0.70089526176453 1483.4749221802 121.77085876465 1278.9749145508 43.116331100464
0.84565781831741 0.034223029613495 0.6726863861084 0.20767089724541 0.61312676548958 0.55179676890373 0.60673294782639 0.60121694207191 0.2118839931488 0.41368549227715 0.62929217100143 0.29640200853348 0.15308298707008 0.96232501626015 0.48965209960938 0.30526450991631 0.79864271759987 0.19933298230171 0.37847364544868 0.18151993870735
0.57130371332169 0.20757542133331 0.96113611102104 0.3934867310524 0.17931514143944 0.98212074875832 0.94824178814888 0.87560975670815 0.6655871796608 0.53022889018059 0.48919336676598 0.44302657365799 0.7380687391758 0.8208039867878 0.87553587794304 0.58335881590843 0.14793661117554 0.7629231607914 0.53859147071838 0.56021410942078
0.40519179463387 0.41273321151733 0.36774104356766 0.52661484956741 0.6987721991539 0.095980838537216 0.10092894554138 0.66403029680252 0.11414769768715 0.76478334784508 0.73577318668365 0.94698927164078 0.99377270460129 0.52928357243538 0.25099878668785 0.67144673347473 0.75692352056503 0.62556082129478 0.39075722932816 0.79096109628677
0.038006306886673 0.042309567928314 0.038087384700775 0.89075726389885 0.11512936472893 0.17349547743797 0.63537548542023 0.74400583028793 0.4537844312191 0.28780339360237 0.019845702648163 0.96096333384514 0.020225245952606 0.82643281698227 0.14044759392738 0.9269363796711 0.26766293287277 0.83076015353203 0.66558529138565 0.89817747712135
0.35158389925957 0.89828038811684 0.17893607020378 0.18947417974472 0.49169922590256 0.78646688342094 0.39094641089439 0.92290786266327 0.58087762236595 0.16154151558876 0.32985563516617 0.26889219999313 0.7941003537178 0.038241161108017 0.3336759698391 0.31471296668053 0.41229123711586 0.48513086080551 0.033673541545868 0.26575471282005
0.7430297100544 0.042119796276093 0.039381679296494 0.11747767090797 0.4077488732338 0.024613125324249 0.84040829539299 0.54063564658165 0.6836176109314 0.14855360507965 0.066849709749222 0.29612761855125 0.18115314126015 0.75917174816132 0.20421724200249 0.96669778943062 0.69107511758804 0.1182354593277 0.8459969997406 0.61211972475052
0.27341520905495 0.59362265348434 0.33347144603729 0.49884870767593 0.30912898302078 0.44908215403557 0.4879822742939 0.76665993928909 0.41641322374344 0.64301131606102 0.2173636496067 0.59279275655746 0.40692428708076 0.93767488241196 0.45833186984062 0.82359025478363 0.1632055580616 0.21684756040573 0.60667098879814 0.097869467735291
